{
	"calificaciones" : [9, 10, 7],
	"Nombre" : "Luis Arias",
	"direccion" : "Calle a las cumbres",
	"edad" : 26,
	"bla" : "bla", 
	"getName" : "getName", 
	"valor1" : [1, 2, "hola", [1, [1, [1, 2, 3], 3], 3], "bla"],
	"valor2" : {"indice" : "valor"}
}